{
  "dependencies": {
    "apis1": {
      "type": "apis"
    },
    "secrets2": {
      "type": "secrets",
      "connectionId": "VaultUri"
    },
    "mssql1": {
      "type": "mssql",
      "connectionId": "CloudelioAzureSQL"
    }
  }
}