{
  "dependencies": {
    "mssql1": {
      "secretStore": "LocalSecretsFile",
      "resourceId": "/subscriptions/[parameters('subscriptionId')]/resourceGroups/[parameters('resourceGroupName')]/providers/Microsoft.Sql/servers/cloudelioapidbserver/databases/CloudelioApi_db",
      "type": "mssql.azure",
      "connectionId": "CloudelioAzureSQL"
    },
    "secrets2": {
      "secretStore": null,
      "resourceId": "/subscriptions/[parameters('subscriptionId')]/resourceGroups/[parameters('resourceGroupName')]/providers/Microsoft.KeyVault/vaults/CloudelioApivault",
      "type": "secrets.keyVault",
      "connectionId": "VaultUri"
    }
  }
}