{
  "dependencies": {
    "apis1": {
      "resourceId": "/subscriptions/[parameters('subscriptionId')]/resourceGroups/[parameters('resourceGroupName')]/providers/Microsoft.ApiManagement/service/CloudelioApiapi/apis/CloudelioApi",
      "type": "apis.azure"
    },
    "secrets2": {
      "secretStore": "AzureAppSettings",
      "resourceId": "/subscriptions/[parameters('subscriptionId')]/resourceGroups/[parameters('resourceGroupName')]/providers/Microsoft.KeyVault/vaults/CloudelioApivault",
      "type": "secrets.keyVault",
      "connectionId": "VaultUri"
    },
    "mssql1": {
      "secretStore": "AzureKeyVault",
      "resourceId": "/subscriptions/[parameters('subscriptionId')]/resourceGroups/[parameters('resourceGroupName')]/providers/Microsoft.Sql/servers/cloudelioapidbserver/databases/CloudelioApi_db",
      "type": "mssql.azure",
      "connectionId": "CloudelioAzureSQL"
    }
  }
}